{
  "AWSTemplateFormatVersion": "2010-09-09",
  "Description": "Lambda layer resource stack creation using Amplify CLI",
  "Parameters": {
    "layerVersion": {
      "Type": "String",
      "Default": "1"
    },
    "env": {
      "Type": "String"
    },
    "s3Key": {
      "Type": "String"
    },
    "deploymentBucketName": {
      "Type": "String"
    }
  },
  "Resources": {
    "LambdaLayer": {
      "Type": "AWS::Lambda::LayerVersion",
      "Properties": {
        "CompatibleRuntimes": [
          "nodejs12.x"
        ],
        "Content": {
          "S3Bucket": {
            "Ref": "deploymentBucketName"
          },
          "S3Key": {
            "Ref": "s3Key"
          }
        },
        "Description": {
          "Fn::Sub": [
            "Lambda layer version ${latestVersion}",
            {
              "latestVersion": {
                "Ref": "layerVersion"
              }
            }
          ]
        },
        "LayerName": {
          "Fn::Sub": [
            "amplify-${env}",
            {
              "env": {
                "Ref": "env"
              }
            }
          ]
        }
      },
      "DeletionPolicy": "Retain",
      "UpdateReplacePolicy": "Retain"
    },
    "LambdaLayerPermissionprivate1": {
      "Type": "AWS::Lambda::LayerVersionPermission",
      "Properties": {
        "Action": "lambda:GetLayerVersion",
        "LayerVersionArn": {
          "Ref": "LambdaLayer"
        },
        "Principal": {
          "Ref": "AWS::AccountId"
        }
      }
    }
  },
  "Conditions": {
    "HasEnvironmentParameter": {
      "Fn::Not": [
        {
          "Fn::Equals": [
            {
              "Ref": "env"
            },
            "NONE"
          ]
        }
      ]
    }
  },
  "Outputs": {
    "Arn": {
      "Value": {
        "Ref": "LambdaLayer"
      }
    },
    "Region": {
      "Value": {
        "Ref": "AWS::Region"
      }
    }
  }
}